<?xml version="1.0" encoding="utf-8"?>
<!-- Generator: Adobe Illustrator 18.1.1, SVG Export Plug-In . SVG Version: 6.00 Build 0)  -->
<svg version="1.1" id="Layer_1" xmlns="http://www.w3.org/2000/svg" xmlns:xlink="http://www.w3.org/1999/xlink" x="0px" y="0px"
	 viewBox="0 0 15000 10000" enable-background="new 0 0 15000 10000" xml:space="preserve">
<rect y="6666.7" fill="#4AA657" width="15000" height="3333.3"/>
<rect y="0" fill="#C8313E" width="15000" height="6666.6"/>
<rect x="7.5" y="10" fill="#C8313E" width="1672.5" height="10000"/>
<g>
	<path fill="#FFFFFF" d="M7.5,7060c23.4,0,46.8,0,74.1,0c0,51.2,0,100.5,0,154.3c25.1,2.9,46.7,5.4,73.9,8.6
		c0,34.7,1.7,67.8-0.4,100.4c-2.8,44,7.6,66.6,43.3,60.6c8.2-1.4,16.9,2.9,27.7,5.1c0,51.3,0,101,0,147.9c4.3,4.9,6.1,8.6,8.1,8.9
		c66.5,9.1,66.5,9.1,66.6,102.9c0,18,0,36,0,51c5.7,4.8,7.6,7.7,9.7,8c62.2,8.1,62.2,8.1,62.3,95.6c0.1,82.3,1,83.2,67.8,66.6
		c0-49.8,0-100.8,0-148.3c5.8-5.2,7.7-8.3,9.9-8.6c61-9.7,60.8-9.6,61.2-91.7c0.1-22.9,1.6-45.8,2.5-70.8c23.8-1.7,44.6-3.2,69.8-5
		c0-52.9,0-103.8,0-157.6c26.1-3.2,48-5.8,73.2-8.9c0-52.1,0-101.5,0-156.8c23.6-2.1,44.1-3.8,70.5-6.1c0-51.2,0-101.7,0-156.5
		c26.4-1.6,47.1-2.9,73.9-4.6c0-35.2,2.1-69.7-0.5-103.5c-3.6-47.3,7.1-69.5,45-58.8c9.2,2.6,19.1,0.4,32.3,0.4
		c0,54.7,0,105.7,0,160.7c25.1,2.1,47,4,74.1,6.2c0,51.9,0,102.5,0,151.6c70.9,17.5,72.5,17.6,70.8,112.4
		c-0.8,44.3,7.9,66.5,43.7,59.9c8.2-1.5,17,2.4,29.3,4.5c0,52.1,0,102.9,0,156.8c25.6,2,47.4,3.6,73.3,5.6c0,52.3,0,101.6,0,146.5
		c6.1,6.2,7.9,9.6,10,9.9c61.7,10.1,61.6,10,61.9,95.9c0.1,22.8,1.5,45.7,2.3,70.9c22.8,0,42.2,0,65.6,0c0-53,0-104,0-150.8
		c5.9-6.1,7.7-9.5,9.9-9.9c61.6-11.4,61.5-11.4,61.8-95.7c0.1-21.3,1.3-42.5,2.2-67.3c23.7-1.5,44.4-2.8,69.5-4.3
		c0-52,0-102.8,0-149.5c6.4-6,8.2-9.2,10.4-9.6c64.5-12.5,64.5-12.5,64.6-102.6c0-19.6,0-39.2,0-62.4c23.7-1.9,43.3-3.4,68.7-5.4
		c0-50.3,0-100.7,0-156.2c27.4-1.9,49.1-3.5,78.3-5.6c0-40.4,0-79.5,0-118.6c0-40,0-80,0-120c0-72.8-0.2-71.5-54.5-84.2
		c-8.5-2-19.9-22-20.8-34.9c-2.7-39.3-1-79.1-1-122c-24.7-2.4-45.2-4.3-70.7-6.8c0-26.7,0-51.2,0-75.6c0-24.8,0-49.6,0-79.7
		c-24.8-3.5-47.5-6.8-72.9-10.4c0-52.9,0-102.4,0-156.1c-22,0-41.2,0-66.8,0c0,32.6-1.8,67,0.4,101c2.8,43.5-6.2,67.4-42.6,60.7
		c-8.3-1.5-17.2,1.8-30.6,3.6c0,51.2,0,101.9,0,157c-25.3,1.7-46,3.2-70.3,4.8c0,49.6,0,98.3,0,154.5c37.1,0,74.1,1.6,110.9-0.6
		c24.5-1.4,33.1,10.3,32.5,42.9c-3,158.4,17.7,125.9-95.3,129.5c-31.2,1-62.6-1.9-93.7,0.7c-28.8,2.4-37.5-14.2-36-49.9
		c1.5-36.3,0.3-72.9,0.3-114.3c-24.1-1.8-44.7-3.3-70.7-5.2c0-27.4,0-53.5,0-79.5c0-24.6,0-49.2,0-73.4c-26-6.2-63.5-3.6-68-18.5
		c-10.4-34.8-5.6-78-5.6-117.8c-0.1-35.2,0.7-35.2,73.1-48.1c0-49.6,0-100.3,0-154c24-1.6,43.6-2.9,71.2-4.8
		c0-33.8,1.9-68-0.5-101.6c-3.2-46.2,7.3-70.2,45-63c7.2,1.4,14.8-1.6,27.3-3.1c0-50.7,0-101.2,0-155.9c26.7-2.1,48.6-3.9,74.6-6
		c0-52.4,0-103.2,0-150.9c6.4-4.5,8.5-7,10.7-7.3c60.2-6,60.2-5.9,60.2-87c0-11.7,0.9-23.5-0.1-35c-4-44.6,16.4-45.8,41.6-47
		c27.4-1.3,40.4,9.8,36.2,47.9c-0.5,4.9-0.1,10-0.1,15c0.2,95.8,0.2,95.8,73.1,109.7c0,25.1,0,51.2,0,77.3c0,24.6,0,49.2,0,71.5
		c5.6,4,7.7,6.6,9.8,6.8c63.8,5.3,63.8,5.2,63.9,91.6c0,21.4,0,42.8,0,60.7c5.4,5.3,7.3,8.5,9.3,8.9c61.3,10.2,61.3,10.2,61.3,96.6
		c0,23.2,0,46.4,0,75.5c-22.8,1.4-43.4,2.7-67.3,4.2c0,49.8,0,98.5,0,151.3c10.7,1.2,21.5,2.5,32.2,3.6c9.8,1,19.5,1.9,31.3,3.1
		c1.3,12.9,3.5,24,3.5,35c1.8,542.9,3.9,1085.8,5,1628.8c1,516.5,1,1033,1.1,1549.5c0,131.6-1.2,263.1-1.8,394.7c-100,0-200,0-300,0
		c0.3-18.3,0.7-36.6,0.8-54.9c0.1-100.6,0.1-100.6,73.8-121.9c0-48.9,0-99.4,0-151.5c26.8-2.5,48.6-4.6,74.5-7c0-54.4,0-105.2,0-155
		c68.9-9,68.9-9,69-97.3c0-1.7,0.1-3.4,0-5c-4.8-48.7,5.4-76.7,48-69.2c8.4,1.5,25.8-12.8,26.4-21.2c2.7-43.7,1.3-87.8,1.3-135.4
		c-28,0-48.9,0-75.6,0c0-28.2,0-52.7,0-77.2c0-26,0-52.1,0-80.2c-26-2.5-46.5-4.4-70.5-6.7c0-25.6,0-46.9,0-68.2
		c0-88.2,0-88.1-63.9-97.1c-2.1-0.3-4-3.3-10.7-9.1c0-46.5,0-97.2,0-147c-72.1-10.3-72.1-10.3-72.2-74c-0.1-84.4-0.1-84.3-61.7-96
		c-2.1-0.4-3.9-3.8-9.7-9.8c0-47,0-97.9,0-151c-23.3,0-42.8,0-68.3,0c0,26.4,0,50.8,0,75.2c0,82.5,0,82.5-61.1,91.8
		c-2.1,0.3-4,3.4-7.8,6.9c-0.5,13-1.6,27.7-1.7,42.4c-0.9,100.4-0.8,100.4-74.2,116.8c0,49.7,0,100.5,0,150.1
		c-72.6,16.4-72.6,16.4-72.6,84.9c0,81.5,0,81.4-61.7,90c-2.1,0.3-3.9,3.6-9.9,9.4c0,45.3,0,94.6,0,147.2
		c-25.7,1.7-47.5,3.2-70.5,4.8c0,52.2,0,101.1,0,151.6c10.8,1.2,19.6,4.3,27.9,2.8c34.6-6.4,47.4,12.4,44,58.6
		c-2.5,34-0.5,68.6-0.5,104.8c25.8,2.6,46.3,4.8,71.8,7.4c0,53.7,0,104.3,0,155.8c25.8,2,46.6,3.7,72,5.7c0,53.5,0,104.2,0,155.8
		c13.2,1.9,21.9,5.3,30.2,3.9c34.5-5.7,47.3,13.1,43.9,59.1c-2.7,36.3-0.8,73.2-1,109.8c-97.5,0-195,0-292.5,0
		c0-105.9,0-211.7,0-315.5c-53.1-20.7-69.5-14.3-69.7,27c-0.4,96.2,1.3,192.3,2.2,288.5c-100,0-200,0-300,0
		c0.5-21.6,1.3-43.2,1.4-64.9c0.2-92.3,0.1-92.3,65.6-107.8c1-0.2,1.8-2,7-8c0-14.4,0-34,0-53.6c0.1-91.6,0.1-91.5,65.5-99.5
		c2.1-0.3,3.9-3.5,10.2-9.3c0-46.7,0-97.5,0-147.4c69.1-8.6,69.1-8.6,69.1-82.3c0-82.9,0-82.9,62.7-89.8c2.2-0.2,4.2-3,7.2-5.4
		c0-48.3,0-97.1,0-150.6c-23.4,0-44.1,0-69.9,0c0-25.9,0-47.1,0-68.4c-0.1-84.9-0.1-84.8-61.9-94.8c-2.1-0.3-3.9-3.8-8.9-9
		c0-21.5,0-46.3,0-71c0-25.9,0-51.9,0-79.2c-27-3.1-48.7-5.6-74-8.5c0-28.6,0-53.2,0-77.8c0-25.9,0-51.8,0-76.8
		c-72.4-9.2-72.4-9.2-72.6-99.8c0-3.3-0.3-6.7,0-10c4.4-41.8-6.2-63.8-40.7-56.8c-25.9,5.3-31.6-13.9-30.5-44.4
		c1.4-39.3,0.3-78.8,0.3-117.2c-67.8-11-67.8-11-67.9,70.4c-0.1,84.9-0.1,84.8-59.9,93.1c-3.3,0.5-6.3,4.3-12.1,8.3
		c0,20.4,0,41.8,0,63.3c0,85.6,0,85.6-64.1,90.7c-2.2,0.2-4.2,2.8-10.4,7c0,48,0,98.8,0,150.9c-12.5,1.4-21.2,4.5-29.5,3
		c-33.8-6.2-45.8,14-41.4,56.9c1,9.8,0.1,20,0.1,29.9c-0.1,75-0.1,74.9-57.1,80.6c-4.5,0.5-8.9,4-16.7,7.7c0,49.7,0,98.9,0,150.5
		c-27.3,0-50.7,0-74.2,0c0-110,0-220,0-330c6.2-0.5,12.3-1.3,18.5-1.5c50.7-1,50.7-1,50.8-71c0.1-81.7,0.1-81.7-69.3-87.5
		c0-166.7,0-333.3,0-500c11.2,0.9,22.6,4.1,33.5,2.2c35.8-6.2,45.8,15.8,42.8,60c-2.4,33.9-0.5,68.4-0.5,103.7
		c26.5,1.6,47.2,2.8,72.2,4.2c0,32.3,0,60.3,0,88.3c0.1,78.8,5.8,84.3,69.5,61.6c0-48.9,0-99.5,0-150.2c24.2-1.6,43.8-2.9,69.2-4.6
		c0-36.7,1.6-71.2-0.4-105.3c-2.5-41.5,6.2-62.3,41-58.9c10,1,29.2-15.5,30.2-26.1c3.6-40.5,1.5-81.8,1.5-123
		c-12.5-2.5-20.1-6.6-27.1-5c-41.5,9.2-48.5-20.5-45.5-66.4c2-31.9,0.4-64.3,0.4-96.2c-27.9-1.9-47.5-3.3-71.4-4.9
		c0-53.8,0-104.4,0-153.8c-67.2-13.7-67.2-13.7-67.3,70.3c0,27.5,0,54.9,0,83.5c-27.5,2.2-48.2,3.8-73.3,5.7c0,54,0,104.6,0,157.1
		c-27.9,2.9-51.3,5.4-74.7,7.9c0-166.7,0-333.3,0-500c21.8-1.7,43.6-3.3,69.3-5.3c0-21.9-0.1-39.7,0-57.6
		c0.3-93.3,0.3-93.3-69.3-97.2C7.5,7280,7.5,7170,7.5,7060z M1163.4,8365.4c0-23.4,0-41.5,0-59.6c0.2-91,0.2-91,65.8-107.7
		c1-0.3,1.9-1.9,4.6-5c0-45.4,0-92.7,0-141.6c-10.7-2-19.5-6.1-27.7-4.6c-35.4,6.2-46.2-15.3-43.2-59.8c2.3-33.8,0.5-68.1,0.5-102.7
		c-27.8-2-48.3-3.4-71.9-5.1c0-55.4,0-104.7,0-156.7c-23,0-42.4,0-67.3,0c0,52.6,0,103.3,0,156.4c-25.8,2.1-46.4,3.8-68.7,5.6
		c-0.9,15.8-2.2,28.7-2.4,41.6c-0.5,33.3,8.2,74.8-3.5,97.5c-10.8,20.9-43.6,21.5-67.9,31.6c0,46.9,0,94.2,0,143
		c24.2,3.3,46.1,6.2,72.3,9.8c0,54.4,0,105.2,0,157.8c25.2,1.6,45.8,2.8,71.6,4.4c0,54.9,0,105.4,0,156c24.8,0,44.2,0,68.3,0
		c0-53.9,0-104.5,0-156.2C1118.1,8368.4,1137.7,8367.1,1163.4,8365.4z M1387.9,7884.3c0,23.7,0,43.3,0,62.9
		c-0.1,90-0.1,89.9-64.7,102.9c-2.1,0.4-3.9,3.6-6.1,5.8c0,47.2,0,94.4,0,142.7c11.4,1.5,20.2,5,28.6,3.5
		c36.1-6.5,45.7,16.7,42.7,60.5c-2.3,33.9-0.5,68.3-0.5,103.1c27.1,1.8,47.7,3.1,71.9,4.7c0,55.1,0,104.5,0,155.3
		c24.3,0,44.6,0,69.7,0c0-54.6,0-105.2,0-155.8c24.5-1.6,44.1-3,68.7-4.6c0-37.1,1.9-71.8-0.5-106c-3-43.3,8.3-63,41.8-56.7
		c29,5.4,37.6-14.9,35.3-49.9c-1.1-16.5-1.5-33.5,0.1-49.9c4.1-43.8-9.4-62.5-42.2-56.4c-29.5,5.4-36.3-15.4-34.8-50.2
		c1.6-37.2,0.4-74.6,0.4-111.7c-27.3-1.9-46.9-3.3-71.1-5c0-53.8,0-104.4,0-156.7c-24.3,0-43.9,0-68.7,0c0,53.3,0,104,0,156.9
		C1433.7,7881.2,1414,7882.5,1387.9,7884.3z M518.6,8041.1c-26.4,3.7-49.2,6.9-71.3,10c0,52.6,0,99.7,0,147.8
		c11.5,1.5,20.4,4.8,28.7,3.3c36.1-6.6,45.5,16.6,42.6,60.4c-2.3,33.9-0.5,68.3-0.5,105.2c16.1,0,25.9-0.4,35.8,0.1
		c10.7,0.6,21.5,2.1,36,3.6c0,31.7,0,59.7,0,87.7c0.1,77.7,7.4,84.6,68,60.9c0-23.7,0-48.5,0-73.2c0-24.5,0-49,0-76.1
		c24.7-2.1,45.2-3.8,70.8-6c0-23.7,0-44.8,0-65.9c0.1-88.2,0.1-88.2,63.5-99.8c2.1-0.4,3.9-3.6,9.2-8.7c0-28.1-1.9-59.7,0.5-90.7
		c3.1-41.4-8.3-59-39.5-53.5c-26.4,4.7-35.4-12-33.9-46.1c1.6-37.6,0.4-75.4,0.4-114.9c-26.1-2.3-46.7-4.1-71.6-6.3
		c0-53.7,0-104.3,0-153.9c-67.1-12.3-67.1-12.3-67.2,71.6c0,27.3,0,54.7,0,83.5c-27.9,1.7-48.5,3-71.4,4.4
		C518.6,7937.4,518.6,7985.3,518.6,8041.1z M873.5,8545.5c-62.7-19.8-66.2-16.2-66.3,65.8c0,58.2,0,116.5,0,174.7
		c0.1,80.8,2.4,83.2,66.3,65.8C873.5,8749.9,873.5,8647.4,873.5,8545.5z M873.6,7704.3c0-101.9,0-204.3,0-306.1
		c-63.2-18.2-66.2-15.1-66.3,65.4c0,58.2,0,116.4,0,174.6C807.3,7719.7,810.3,7722.7,873.6,7704.3z M1607.2,8864.4
		c24.9-7.4,60.6-9,62.3-20c6.6-42.4,6-88.9-0.7-131.4c-1.5-9.6-38.3-9.2-61.5-14C1607.2,8755.7,1607.2,8803,1607.2,8864.4z
		 M1608.4,7391.5c0,56.5,0,105,0,153.3c22.4,0,41.7,0,65.8,0c0-43.7,1.5-84.6-1.1-125.1c-0.6-10.2-13.4-23.7-22.4-27.1
		C1638.3,7388,1624.2,7391.5,1608.4,7391.5z M1607.3,9845.8c24.9-6.3,60-7.2,61.5-16.9c6.3-42.7,6.6-89,0.1-131.5
		c-1.6-10.1-38-10.7-61.5-16.4C1607.3,9738.8,1607.3,9785.9,1607.3,9845.8z"/>
	<path fill="#FFFFFF" d="M1170,10c0.1,36.7-1.7,73.6,1,109.9c3.4,46.2-9.6,64.8-44,59.1c-8.3-1.4-17,2.1-30.2,3.9
		c0,51.7,0,102.3,0,155.8c-25.4,2-46.2,3.7-72.1,5.7c0,51.6,0,102.3,0,155.7c-25.4,2.7-46,4.8-71.6,7.5c0,38-1.8,74.2,0.5,110.1
		c2.7,42-9.6,58.1-40.5,53.2c-9.5-1.5-19.5,1.5-31.5,2.7c0,50.9,0,99.8,0,151.9c23.3,1.5,45.1,2.8,70.8,4.4c0,53.1,0,102.4,0,148
		c6.1,5.5,8,8.6,10.1,8.9c61.3,7.9,60.6,7.9,61.8,90.5c0.4,25,0.1,59.7,11.3,72.1c12.3,13.7,37.5,7,59.9,9.4c0,51.7,0,101.2,0,147.2
		c4.8,5.6,6.5,9.4,8.5,9.7c66.4,9.7,66.4,9.6,66.5,98.5c0,19.6,0,39.2,0,55.6c6.1,4.9,8,7.8,10.2,8.1c60.5,8.1,60.5,8.1,60.5,92.4
		c0,23,0,46,0,72.8c24.4,0,44.6,0,68.7,0c0-52.4,0-103.3,0-150.8c5.9-5.3,7.8-8.4,10-8.8c60.8-10.4,60.6-10.4,61-96.8
		c0.1-21.2,1.5-42.4,2.5-66.1c24-1.7,44.8-3.2,70.2-5c0-52.4,0-103.1,0-150.2c6.8-5,8.8-7.6,11-8c63-11,63-11,63-97.9
		c0-21.2,0-42.4,0-67.3c23.9-2,43.4-3.6,68.9-5.7c0-50.4,0-100.9,0-155.1c28.7,0,51.4,0,76.9,0c0,108.3,0,215.6,0,327.5
		c-21.8,1.7-42.4,3.3-65.5,5.1c0,50,0,97.6,0,151.5c19.9,1.4,40.4,2.9,64.5,4.6c0,162.9,0,325,0,491.2c-8.3,1.8-17.7,4-27.1,5.9
		c-33.9,6.6-52.2-7.1-47.6-58.7c2.9-32.6,0.5-66,0.5-103.9c-24-1.5-44.6-2.9-69.8-4.5c0-52.4,0-103,0-156.7c-24.2,0-43.6,0-68.4,0
		c0,51.2,0,101.7,0,156.2c-25.7,1.8-46.3,3.2-72,5c0,36.3-1.8,71,0.5,105.1c2.7,41.9-6.1,64-40.8,58.1c-9.4-1.6-19.4,2.2-31.2,3.9
		c0,49.7,0,97,0,147.7c23.5,3,45.4,5.7,70.5,8.9c0,52.6,0,102,0,157c23.8,1.6,44.4,3,71.6,4.9c0,30,0,59.2,0,88.3
		c0,80,2.9,82.8,68.5,64.1c0-48.2,0-97.5,0-152.1c23.8-1.6,44.3-3,71.1-4.8c0-34.1-0.1-66.7,0-99.3c0.1-64,0.6-64.7,47.6-62.4
		c8.6,0.4,17.1,2.6,27.8,4.4c0,163.7,0,325.9,0,491.3c-21.9,1.5-41.5,2.8-64.7,4.4c0,49,0,97.7,0,152.1c19.7,1.6,40.3,3.2,63.9,5.1
		c0,109.4,0,216.6,0,327.9c-22.5,0-45.4,0-74.2,0c0-51.2,0-101.8,0-154.6c-25.1-2.2-44.6-3.9-70.9-6.2c0-36.5-1.9-72.5,0.5-108
		c2.8-41.3-8-58.8-39.5-54.1c-9.5,1.5-19.5-2.2-33.6-4.1c0-52.1,0-102.8,0-149.8c-6.5-5.3-8.4-8.2-10.5-8.4
		c-63.6-6.1-65.2-6.1-63.1-91.8c1.2-48-1.7-82-48.1-74.1c-6.5,1.1-21.2-20.1-22-32.2c-2.8-41.1-1.1-82.8-1.1-129.6
		c-15.7-1-28.9-1.3-42.1-2.9c-19.2-2.4-28.1,8.3-27,34.1c0.4,10,0,20,0,30c-0.2,93.4-0.2,93.4-70.7,109c0,49.1,0,99.6,0,153.3
		c-26.2,1.5-47.1,2.8-72.1,4.2c0,51.4,0,102.2,0,150.9c-7,5.1-9.9,8.8-13.2,9.4c-61.3,10.4-61.3,10.3-61.3,87.2
		c0,75.2,0,75.2-69.2,83.1c0,49.5,0,100,0,155.3c-26.9,2-48.7,3.5-75.2,5.5c0,53.8,0,106.1,0,163.4c-23.1,0-42,3.5-59.5-1.6
		c-7.6-2.2-16.9-21.6-17.5-33.9c-2.2-41.1-0.8-82.6-0.8-121.1c-5.7-4.5-7.7-7.3-9.8-7.5c-62.8-5.8-62.8-5.7-62.9-92.7
		c0-21.2,0-42.5,0-67c-24.9-2.5-45.4-4.6-69.5-7c0-51.6,0-100.9,0-155.4c-25.9-3.9-48.6-7.3-74.3-11.1c0-52,0-101.5,0-155.5
		c-24.6-2.4-46.3-4.6-73.6-7.3c0-34.4-1.7-67.4,0.4-100c2.9-44-7.2-66.6-43.1-59.2c-7,1.5-14.6-1.6-26.9-3.3c0-53.1,0-105.1,0-155.8
		c-68.3-16.6-69-15.8-69.1,66.5c-0.1,86-0.1,86-72,97.8c0,33.1-2,67.7,0.5,101.7c3.1,43-6.9,63.1-41.1,56.1c-9.4-1.9-19.5,1-32.8,2
		c0,53.1,0,104,0,153.7c-70.7,22-70.6,22-72,118.5c-0.2,16.3-1.7,32.5-2.8,51.2c-23.4,2.2-44.1,4.1-68.5,6.4c0,51.3,0,100.6,0,155.7
		c-28.1,0-52.3,0-76.5,0c0-110,0-220,0-330c16.1-0.5,32.4,1.1,48.1-2.5c7.4-1.7,19.1-12.9,19.4-20.5c1.9-43.6,0.9-87.4,0.9-132.6
		c-26.8-1.7-47.6-3.1-68.5-4.4c0-166.7,0-333.3,0-500c24.3,2.7,48.7,5.5,77.3,8.7c0,55.2,0,105.9,0,159.3c14.5,0,24.4-0.4,34.3,0.1
		c10.8,0.6,21.5,2.1,36.4,3.7c0,31.6,0,59.5,0,87.5c0.1,78.1,7.1,84.8,69.8,60.6c0-48.6,0-99.2,0-151.8c14.6,0,24.5,0.3,34.4-0.1
		c9.7-0.4,19.3-1.5,34.5-2.8c0-28.5,0-54.6,0-80.7c0-74.4,0-74.3,56.3-82.2c4.6-0.6,8.9-4.1,16.2-7.5c0-33.9-1.8-67.1,0.5-99.8
		c2.6-38.1-8.8-52.6-36.1-47.4c-31.2,5.9-38.7-15.7-37.1-52.4c1.6-35.9,0.3-72,0.3-109.9c-26.3-2.3-46.8-4-71.7-6.2
		c0-53.5,0-104.1,0-153.7c-67-12-67-12-67,71.2c0,27.4,0,54.7,0,83.3c-27.8,1.9-48.4,3.3-72.2,4.9c0,20.5,0,36.8,0,53.1
		C83,1811.8,83,1811.8,7.5,1820c0-166.7,0-333.3,0-500c8.6-0.6,17.5-3.5,25.8-1.6c38,8.6,45.1-16,44.2-61.2
		c-2-92.6-0.4-92.6-70-97.2c0-110,0-220,0-330c24.3,0,48.5,0,76.6,0c0,55.4,0,104.7,0,156.4c35.1,5.9,78-15.2,72.8,67.6
		c-5.8,92.2-1,92.7,70.6,107.1c0,50.7,0,102.8,0,156.9c14.1,0,23,1.4,31.5-0.3c32.3-6.4,45.9,9.3,42.3,54.6
		c-2.7,34-0.5,68.7-0.5,104.2c13.7,1.8,22.5,5.2,30.7,3.6c33.9-6.3,44.8,14.2,41.6,56.9c-1.9,24.7,0.1,49.9-0.3,74.9
		c-0.4,24.3,5.9,37.7,26.1,35.4c13-1.5,26.3-0.3,41.8-0.3c0-48.9-1.7-90.6,1-131.7c0.8-12.2,15.1-33.8,21.5-32.7
		c45.6,7.7,50.3-24.3,48.9-73.6c-2.3-86.5-0.6-86.6,62.4-92.7c2.1-0.2,4.1-3.1,10.9-8.7c0-46.8,0-97.4,0-148.8
		c26.6-2.8,48.5-5.2,74.3-7.9c0-55.2,0-106,0-158.4c11.2-1.5,18.8-4.6,25.7-3c38.9,8.7,47-17.7,43.8-62.6
		c-2.2-30.9-0.4-62.4-0.4-96.2c26.6-2.3,48.4-4.2,69.5-6.1c0-53.3,0-102.2,0-150.5c-69.5-9.5-69.5-9.5-69.5-91.4
		c0-75.2,0-75.2-57.5-79.7c-3.4-0.3-6.7-3-14.1-6.6c0-49.8,0-100.5,0-152.2c-12.9-1.1-21.7-3.9-30-2.2
		c-34.5,6.7-47.4-11.6-43.7-57.8c2.6-32.5,0.5-65.8,0.5-100.8c-13.6-2-23.4-5.9-32.8-4.5c-31.4,4.7-42.2-13.2-40.2-54.2
		c1.8-38.1-0.5-76.5-1-114.8c100,0,200,0,300,0c-0.9,86.2-2.2,172.4-2.6,258.6c-0.4,72.8,8.9,80.8,70.1,56.9
		c0-103.8,0-209.7,0-315.5C975,10,1072.5,10,1170,10z M1163.5,2135.3c0-40.7,1.5-75.7-0.4-110.4c-2.1-38.5,7.8-55.1,37.9-52
		c14.5,1.5,35.2,8,35.2-27.4c0-41,0-82.1,0-123.3c-12.7-2.2-20.2-5.7-27.3-4.4c-36.3,6.5-49.7-13.6-45.9-61.7
		c2.6-33.6,0.5-67.9,0.5-101.8c-27.4-1.9-47-3.2-71.1-4.8c0-53.5,0-104.2,0-156.8c-24.2,0-43.8,0-68.6,0c0,53.2,0,103.8,0,156.5
		c-25.7,2.1-46.3,3.9-70.7,5.9c0,24.2,0,45.5,0,66.7c0,88,0,88-64.1,98.5c-2.2,0.4-4.1,3.2-7.2,5.9c0,46.6,0,94,0,143.2
		c24.3,3.1,46.2,5.9,72.5,9.3c0,54.2,0,105,0,157c25.3,1.7,45.9,3.1,71.8,4.8c0,55.3,0,105.7,0,155.6c25,0,44.2,0,68.2,0
		c0-54.4,0-104.9,0-156.1C1118.7,2138.5,1138.3,2137.1,1163.5,2135.3z M518.1,1978.4c0,53.3,0,104,0,157c14.2,1.1,23.9,1.9,33.6,2.5
		c11,0.8,22.1,1.4,38.3,2.5c0,30.4,0,58.3,0,86.2c0.1,81.2,3.2,84.4,68.8,65.5c0-49,0-99.6,0-152c25.1-1.7,45.7-3.1,70-4.7
		c0-41,1.5-77.5-0.4-113.6c-2-37.4,8.8-49.6,36.4-49.5c12.1,0,33.6-14.4,34.8-25.3c4.2-40.3,1.7-81.9,1.7-124.2
		c-12.8-2.2-21.5-6.2-29.7-4.8c-35.7,6.3-46.1-15.9-43.2-60c2.2-33.9,0.4-68.2,0.4-103.5c-27.4-1.8-47.9-3.2-71.5-4.8
		c0-54.6,0-104,0-152.2c-65.1-17.4-67.2-15.2-67.3,66.6c0,27.8,0,55.7,0,85.6c-26,1.8-46.7,3.3-69.4,4.9c-0.9,17.1-2,31.7-2.3,46.2
		c-0.7,33.2,7.7,74.1-3.9,97.4c-9.9,20-42.5,20-67.9,29.9c0,43.4,0,90.7,0,141.4C470.1,1972.4,491.9,1975.1,518.1,1978.4z
		 M873.4,1474.4c0-102.2,0-204.7,0-306.7c-64.5-16.3-66.1-14.7-66.1,66.9c0,58.2,0,116.5,0,174.7
		C807.3,1490.6,811.4,1494.7,873.4,1474.4z M874,2622.6c0-104.3,0-205.4,0-310.6c-21.6,0-41.8,0-66.8,0c0,84.1,0,163.6,0,243.1
		C807.3,2637.3,808.7,2638.8,874,2622.6z"/>
	<path fill="#FFFFFF" d="M7.5,3290c23.4,0,46.8,0,75.3,0c0,52.1,0,102.7,0,155.4c25.7,2.3,46.4,4.1,72.7,6.4
		c0,35.1,1.7,68.1-0.4,100.7c-2.8,43.9,7.3,66.7,43.3,60.4c8.1-1.4,16.8,3.1,28.7,5.6c0,52.4,0,103.4,0,156.7c22,0,40.4,0,67.1,0
		c0-33.2,2-67.4-0.5-101c-3.5-47.1,8.2-69.3,45.3-62.4c7.1,1.3,14.7-2.1,27.6-4.4c0-34.5,2-69.2-0.5-103.2
		c-3.2-43.5,7.7-62.7,41.5-56.2c9.4,1.8,19.4-1.4,31-2.5c0-50,0-97.7,0-151.3c-45.2,0-90.8,0-143.3,0c0-54.4-1.1-103.4,1.1-152.2
		c0.4-7.9,15.4-20.7,23.8-21c57.5-1.8,115-2.5,172.4,0.7c8.9,0.5,23.3,22.1,24.3,35.5c3.2,40.7,1.2,82.2,1.2,125.9
		c25.2,2.3,45.9,4.2,71.9,6.5c0,34.8,1.7,67.8-0.4,100.4c-2.9,44.3,7.4,66.7,43.3,58.8c7.1-1.6,14.8,1.2,25.5,2.3
		c0,54.3,0,108.1,0,161.8c-2.2,2-4.1,5.2-6.2,5.5c-62,8.9-62,8.9-62.2,95c0,21.3,0,42.6,0,66.8c-25.4,1.7-46.2,3-71.8,4.7
		c0,36.7-2.1,71.5,0.5,105.6c3.5,46.1-9.3,65-43.9,59c-8.3-1.4-17.1,1.8-30.5,3.6c0,27.1,0,53.2,0,79.3c0,24.5,0,49,0,76.7
		c-23.8,1.7-43.3,3.1-70.1,5c0,51.6,0,103.3,0,156.6c-27.8,2.9-48.5,5.1-73.5,7.7c0,35.5,0.1,68.4,0,101.2
		c-0.1,62.4-0.2,62.5-48.5,61c-7.4-0.2-14.8-1.5-27.4-2.9c0-52.4,0-104.4,0-159.5c-27-2.6-48.9-4.7-74.3-7.2c0-52.1,0-101.5,0-155.3
		c-25-2.5-46.7-4.7-73.7-7.5c0-33.2-2-64.7,0.5-95.5c4-49.4-8.3-72.8-47.3-63.8c-7.3,1.7-15,0.8-22.5,1c0-56.7,0-113.3,0-170
		c21.8-1.7,43.6-3.4,69.3-5.4c0-21.9-0.1-39.7,0-57.6c0.3-94,0.3-94-69.3-97.1C7.5,3510,7.5,3400,7.5,3290z"/>
	<path fill="#FFFFFF" d="M7.5,6070c82.1,2.1,67.6,7.1,69.4-87.7c0.4-23,1.6-45.9,2.5-71.5c23.6-1.8,44.3-3.4,69.9-5.3
		c0-52.6,0-103.4,0-156.5c26.7-2.6,48.6-4.7,74.2-7.2c0-54,0-104.9,0-152.6c6-4.7,8-7.6,10.2-7.8c67.1-8.2,67.1-8.2,67.1,78.9
		c0,24.9,0,49.8,0,79.6c12.3,2,22.8,4.1,33.4,5.3c11,1.3,22,1.8,38.6,3.1c0,53,0,103.6,0,156.4c26.2,2.4,46.7,4.3,70.6,6.4
		c0,52,0,101.4,0,147.2c5.3,5.5,7.1,8.8,9.2,9.2c65.5,11.3,65.6,11.3,65.6,101.7c0,19.9,0,39.8,0,64.3c23.7,2.3,45.5,4.4,71.8,6.9
		c0,35,1.9,68.2-0.4,100.9c-3.2,45.7,9.5,64.9,44.1,57.9c7.1-1.4,14.6,1.4,25,2.7c0,55,0,108.7,0,161.9c-3,2.4-5,5.2-7.2,5.5
		c-61.3,6.9-61.3,6.8-61.4,90.4c0,22.8,0,45.7,0,70.5c-26,2.4-46.7,4.2-71.9,6.5c0,42-0.8,81.6,0.3,121c0.8,28.8-5.9,43.1-29.5,42.5
		c-55-1.3-110,0.9-164.9-1.6c-9.9-0.5-27.1-15.8-27.8-25.9c-3-45.9-1.3-92.3-1.3-143.9c50.1,0,95.7,0,143.5,0c0-53,0-100.7,0-149.3
		c-1.1-1.3-2.8-5.1-4.8-5.5c-66.9-10.9-66.9-10.9-67-103.3c0-18,0-36.1,0-50.9c-5.3-5.1-7.1-8.3-9.2-8.7
		c-63.1-11.3-63-11.3-63.3-100.4c-0.1-21.2-1.4-42.4-2.2-65.9c-22.5,0-41.8,0-64.8,0c0,53.1,0,104.1,0,153.4
		c-25.9,10.7-57,11.3-67.8,31.4c-11.4,21.2-3.1,60.9-4,92.5c-0.4,14.7-2,29.3-3.1,46.1c-23,2-43.8,3.9-68.2,6
		c0,51.5,0,100.8,0,155.5c-28,0-52.2,0-76.4,0c0-110,0-220,0-330c16.1-0.4,32.4,1.3,48.1-2.3c7.4-1.7,19.1-13,19.4-20.7
		c1.9-43.6,0.9-87.4,0.9-132.4c-26.8-1.8-47.6-3.2-68.5-4.7C7.5,6183.3,7.5,6126.7,7.5,6070z"/>
	<path fill="#FFFFFF" d="M7.5,4430c75.7,5.3,75.7,5.3,75.8,106.7c0,18,0,36.1,0,58.7c23.6,1.4,44.2,2.6,72.2,4.3
		c0,35.3,1.6,69.5-0.4,103.4c-2.5,41.7,6.4,64,41,56.9c8.2-1.7,16.9,1.6,30.7,3.3c0,27.8,0,53.7,0,79.7c0,24.9,0,49.8,0,76.7
		c24.4,5,62.7,1.7,66.8,15.8c10.4,36.6,7.5,80.9,6.7,122c-1.4,72.8-49.8,15.6-73.5,53.5c0,14.2,0,40.2,0,66.2c0,24.8,0,49.6,0,71.4
		c-4.7,5.1-6.4,8.7-8.5,9c-62.6,11.1-62.6,11.1-62.8,99.4c-0.1,19.7,0,39.3,0,62.3c-15.2,1.3-26,2.6-36.9,3.1
		c-9.8,0.5-19.7,0.1-35.3,0.1c0,37.3-2.2,71.9,0.5,105.8c3.9,49.2-11,66.9-46.4,60.4c-9.7-1.8-19.9,0.8-29.9,1.3
		C7.5,5203.3,7.5,4816.7,7.5,4430z"/>
	<path fill="#FFFFFF" d="M300,10c0.2,38.2-1.1,76.6,1.2,114.5c2.5,40.7-7.9,59.2-39.5,54.4c-9.6-1.5-19.7,1.4-34,2.8
		c0,51.8,0,102.4,0,149c-6.5,5.6-8.4,8.6-10.5,8.9c-61.6,7.3-61.6,7.2-61.7,89.2c0,22.9,0,45.8,0,71.6c-25.2,2.4-45.9,4.4-72.2,6.9
		c0,35.5-2.3,70,0.5,103.7c4.1,49.7-11.4,66.3-46.5,59.7c-9.8-1.9-19.9-0.6-29.9-0.7c0-110,0-220,0-330c69.3-13.3,70-13.3,69.1-75.1
		c-1.2-87.8,14.7-89.4-69.1-84.9c0-56.7,0-113.3,0-170C105,10,202.5,10,300,10z"/>
	<path fill="#FFFFFF" d="M7.5,9350c91-0.3,73.9-11.9,75.8,98.7c0.3,19.8,0,39.5,0,64.7c23.2,1.5,43.8,2.9,72.2,4.8
		c0,35.1,1.9,69.2-0.5,102.8c-3.1,45.2,8.9,65,43.6,57.6c7.1-1.5,14.7,1.2,26.6,2.4c0,51.1,0,101.6,0,147.9c6.6,6,8.4,9.1,10.5,9.4
		c65,10.4,65,10.4,65,101.9c0,23.2-0.5,46.5-0.7,69.7c-97.5,0-195,0-292.5,0c0-56.7,0-113.3,0-170c6.1,0.5,12.3,1.2,18.4,1.3
		c50.7,0.9,50.7,0.8,50.9-66.5c0.2-81.5,0.2-81.5-69.3-94.8C7.5,9570,7.5,9460,7.5,9350z"/>
	<path fill="#FFFFFF" d="M1672.5,10c1.1,44.8,1.7,89.5,3.5,134.3c1.1,27.1-9.2,35.1-27.3,34.2c-12.3-0.6-24.7-0.1-40.2-0.1
		c0,53.3,0,101.9,0,153.7c21.9,2.3,42.5,4.5,67.1,7.2c0,103.7,0.9,204.8-1.6,305.9c-0.2,9-22.5,21.8-35.5,24.1
		c-15.3,2.7-38,10.7-39.6-26.5c-1.2-28.2-2.2-56.8-0.3-84.9c2.7-39.8-6.3-60.5-38.9-54.2c-8.4,1.6-17.3-0.9-30.5-1.9
		c0-51.1,0-101.9,0-156.4c-26-2.4-47.8-4.5-74.6-7c0-52,0-102.6,0-151.5c-73.7-21.4-73.7-21.4-73.8-121.9c0-18.3-0.5-36.6-0.8-54.9
		C1477.5,10,1575,10,1672.5,10z"/>
	<path fill="#FFFFFF" d="M1023.9,4265.6c25.8,2,46.6,3.7,72.1,5.7c0,52.4,0,103,0,148.6c28,11.1,60.5,11.2,70.4,31.2
		c11.6,23.4,3.4,64.2,4.1,97.5c0.3,14.6,1.4,29.2,2.3,46.7c22.5,1.6,43.1,3.1,65.9,4.7c0,273.6,0,544.3,0,820.2
		c-21.1,1.3-41.7,2.5-68.3,4.2c0,35.5-1.8,69.9,0.4,103.9c2.9,43.9-6.7,67.1-42.9,60.5c-8.4-1.5-17.2,1.7-30.5,3.4
		c0,51.3,0,101.9,0,156.7c-25.2,1.7-46,3.2-71.9,4.9c0,51.4,0,101.9,0,156.6c-25.5,2.3-46.1,4.1-72.5,6.4c0,35.7-1.8,70.1,0.4,104.1
		c2.9,44.1-6.8,67.1-43,59.8c-8.3-1.7-17.2,1.3-30.4,2.6c0,51.3,0,102,0,155.7c-27.6,0-50.5,0-77.3,0c0-51.5,0-100.7,0-145.8
		c-5.7-6.1-7.5-9.6-9.5-10c-64.3-10.3-64.3-10.3-64.4-98.2c0-21.3,0-42.6,0-67.9c-24.9-2.2-45.5-4-70.4-6.1c0-52.5,0-103.3,0-152.8
		c-73.8-17.1-73.7-17.1-74.4-116.8c-0.1-14.7-1-29.5-1.5-42.6c-3.6-3.5-5.4-6.8-7.5-7.2c-63.5-11.2-63.5-11.1-63.6-99.9
		c0-21.2,0-42.3,0-66.3c-25.4-2.1-46-3.7-68.6-5.6c0-273.3,0-544.1,0-820c20.9-1.3,41.4-2.7,68.6-4.4c0-35.7,1.7-70.2-0.4-104.1
		c-2.8-44.1,7.4-66.7,43.3-60.2c8.2,1.5,16.8-2.4,29.7-4.6c0-34.2,1.9-67.3-0.5-99.9c-3.3-44.7,7.4-66.1,43-58.7
		c8.4,1.7,17.3-1,30.3-2c0-51.4,0-102.1,0-149c6.3-5.5,8.2-8.5,10.3-8.8c61.5-6.8,61.5-6.8,61.6-90.2c0.1-66.4,0.1-66.4,72.4-85.9
		c0-48,0-97.3,0-150.4c26.7,0,49.6,0,77.3,0c0,50.6,0,101.2,0,150.4c74.2,19.4,74.1,19.4,74.6,118.7c0.1,16.3,1,32.6,1.7,52
		c22.9,2.1,43.5,4.1,69.1,6.5C1023.9,4162.2,1023.9,4213,1023.9,4265.6z M877.1,4928.5c23.9-2.2,44.6-4,69-6.2c0-24.2,0-43.9,0-63.6
		c0.1-91,0.1-91,65.1-102.2c2-0.3,3.6-4.1,4.4-4.9c0-103.6,0-205.7,0-307.7c-21.6,0-39.8,0-63.4,0c0,53.4,0,103.9,0,155.7
		c-27,2.2-48.9,3.9-74,6c0,54.8,0,105.8,0,159.4c-15.6,0-28.2-3.1-39.6,0.6c-32.5,10.5-39.3-9.6-37.5-47.6
		c1.7-37.4,0.4-75.1,0.4-117.2c-26.6,0-47.3,0-73.7,0c0-55.1,0-105.5,0-155.8c-25.1,0-44.3,0-63.3,0c0,106.3,0,208.6,0,311.9
		c11.3,1,20.2,4,28.5,2.3c36.1-7.3,46,15.5,43,59.6c-2.2,33.9-0.4,68.4-0.4,103.7c26.5,2.6,47.1,4.6,68.6,6.8
		c0,56.2,0,108.5,0,162.1c-23.5,2.3-44.2,4.2-68.5,6.6c0,26.5,0,49.4,0,72.4c0,85.7,0,85.7-63.9,92.5c-2.2,0.2-4.2,2.9-7.7,5.4
		c0,101.4,0,203.7,0,307.8c21.5,0,40.7,0,65.7,0c0-53.6,0-104,0-155.7c26.5-1.9,47.3-3.3,71.8-5.1c0-44.2-1.3-85.5,0.8-126.6
		c0.7-12.5,9.6-32.5,16.9-34.5c18.4-5,38.2-1.7,60.8-1.7c0,59.2,0,110.2,0,163.1c25.3,1.7,47.1,3.1,74,4.9c0,54.7,0,105.3,0,154.3
		c24.5,0,43.7,0,62.8,0c0-105.6,0-206.6,0-309.7c-22.4-3.4-50.3,3.1-61.7-12.2c-11.5-15.4-8.4-52.4-8.8-80c-1-74.5-0.4-74.5-58-79.4
		c-3.4-0.3-6.6-3.3-11.3-5.7C877.1,5036,877.1,4985,877.1,4928.5z M1162,5086.2c0-53.4,0-102,0-151c-24.1,0-43.2,0-62.7,0
		c0,52.3,0,101.1,0,151C1120.4,5086.2,1138.7,5086.2,1162,5086.2z M582.8,4935.7c-23.7,0-42.8,0-62.3,0c0,52.4,0,100.9,0,148.7
		c22.8,0,41.8,0,62.3,0C582.8,5033.2,582.8,4985.9,582.8,4935.7z M873.8,4106.8c-24.3,6.2-59.7,7.9-60.8,16.8
		c-5.3,44.7-4.4,92,1.6,136.7c1,7.5,37.3,6.7,59.2,10C873.8,4214,873.8,4166.5,873.8,4106.8z M873.8,5746.4
		c-24.2,6.2-59.3,7.3-60.7,17.1c-6.3,42.9-6.6,89.4-0.1,132.1c1.5,10,37.9,10.7,60.8,16.2C873.8,5854,873.8,5806.4,873.8,5746.4z"/>
	<path fill="#FFFFFF" d="M1243.3,3292c0,54.4,0,102,0,153.5c22.6,1.9,43.3,3.6,68.9,5.7c0,50.8,0,101.4,0,147.2
		c6.8,6.7,8.6,10,10.7,10.4c64.9,11.9,64.9,11.8,65,102.8c0,19.7,0,39.4,0,62.6c22.4,0,41.6,0,65.1,0c0-51,0-101.9,0-156.5
		c25.7-3.4,47.6-6.4,74.2-9.9c0-51.6,0-102.3,0-156.3c24.2-1.8,43.8-3.3,69.2-5.2c0-50.3,0-100.8,0-155.4c28.5,0,51.3,0,76.8,0
		c0,107.8,0,215,0,327.3c-21.4,1.8-42,3.5-65.2,5.5c0,51.1,0,99.8,0,151.8c22.2,1.6,42.8,3.2,65.5,4.8c0,55.6,0,108.1,0,164.6
		c-21.6,2.7-42.3,5.3-68.3,8.5c0,33.9-1.7,66.8,0.4,99.3c2.8,43.2-5.7,67.7-42.5,59.6c-8.4-1.8-17.3,0.8-30.3,1.7
		c0,51.3,0,102,0,148.6c-6.3,6-8.1,9.1-10.2,9.4c-63.9,8.6-63.9,8.6-64.2,107.5c-0.1,63.6-0.9,63-47.8,62
		c-23.6-0.5-31.3-13.7-29.9-42.3c0.5-9.9,0-20,0-30c-0.1-89.4-0.1-89.4-68.6-98.2c0-49.7,0-100.4,0-155.5
		c-25.9-2.3-47.7-4.3-74.6-6.7c0-51.3,0-101.8,0-148.3c-7.2-5.7-9.1-8.5-11.3-8.8c-62.8-8.5-62.8-8.4-62.9-95.3
		c0-22.8,0-45.5,0-71.1c-24.8-1.6-44.5-3-68.8-4.6c0-50.6,0-101.2,0-152.6c-27-6-65.5-3.9-69-17.5c-9.9-39.1-8.1-84.8-6.1-127.5
		c3.1-67.6,47.3-15.9,71.5-46.5c0-41.3,0-91.9,0-147.3c24.8-1.9,45.3-3.5,72.4-5.5c0-40.9,0.8-80.1-0.2-119.3
		c-0.8-30.7,6.4-45.9,31.8-45.1c53.7,1.7,107.4,1.6,161.1,0c25-0.8,31.5,13.3,32.1,44.6c2.4,127.9,3,127.8-92.1,127.9
		C1280,3292,1263.9,3292,1243.3,3292z"/>
	<path fill="#FFFFFF" d="M1381.3,5090.2c0-47.1-1.2-93.1,1-138.8c0.4-9,12.8-22.2,21-24.3c15.3-3.9,31.5-1.1,50.5-1.1
		c0-42.3,2.1-77.3-0.5-111.6c-3.5-45,9.6-61.3,42.2-55.4c8.4,1.5,17.3-1.2,30.7-2.4c0-51.1,0-101.7,0-156.5
		c25.1-1.7,45.6-3.1,72.2-4.9c0-44.5,0-87.2,0-129.9c0-44.2,25.2-31.9,43.4-33.4c18.1-1.5,34.5-1.5,34.4,34.6
		c-0.7,366.6-0.7,733.2-1,1099.8c0,4.7-1.9,9.5-3.8,18.8c-12.6,1-26.1,1.4-39.5,3.2c-26.6,3.6-35.4-13-34.1-46.9
		c1.5-37.8,0.3-75.7,0.3-116.2c-25.3-2-45.9-3.7-69.8-5.6c0-52,0-101.3,0-147.2c-5.4-5.4-7.2-8.7-9.2-9.1
		c-65.4-10.2-65.4-10.2-65.4-100.9c0-19.9,0-39.8,0-64.2C1430.1,5095.8,1408.3,5093.3,1381.3,5090.2z"/>
	<path fill="#FFFFFF" d="M1314.3,339.8c0,53.3,0,102.7,0,149.8c5.3,3.9,7.3,6.7,9.4,6.9c64.1,5.7,64.2,5.7,64.2,91.2
		c0,21.4,0,42.8,0,60.9c5.1,5.3,6.8,8.7,8.9,9.1c61.7,11.3,61.7,11.2,61.7,96.4c0,23.2,0,46.4,0,74.5c-12.6,1.4-23.3,3-34,3.6
		c-9.9,0.6-19.8,0.1-36.7,0.1c0,38-2,74,0.5,109.4c3.1,44-8.9,62-42,56.7c-9.3-1.5-19.2,2.6-32,4.7c0,51.7,0,101.1,0,146.9
		c-5.5,5.3-7.4,8.6-9.5,8.9c-68.5,10-68.5,9.9-68.5-80.8c0-24.6,0-49.1,0-72.1c-72-20.6-71.9-20.6-73-122.1
		c-0.2-14.8-1.1-29.6-1.9-49.3c-22-1.3-42.6-2.6-68.4-4.1c0-49.3-1.6-97.1,1.4-144.4c0.6-9.3,19.1-24.6,28.5-23.5
		c34.7,4.1,45-16.5,40.6-58.2c-0.3-3.3,0-6.7,0-10c0.2-91.4,0.2-91.4,72.9-99.6c0-25,0-50.9,0-76.8c0-24.7,0-49.3,0-78.1
		C1262.8,339.8,1285.7,339.8,1314.3,339.8z M1244.1,673.7c0,52.7,0,101.5,0,149.7c23.4,0,43.7,0,64.1,0c0-51.6,0-99.1,0-149.7
		C1286.9,673.7,1267.6,673.7,1244.1,673.7z"/>
	<path fill="#FFFFFF" d="M1531.5,1974c-8.1,3.6-11.4,6.1-14.9,6.5c-62.8,7.3-62.8,7.2-62.8-74.8c0-11.6,0-23.2,0-34.9
		c0.1-60.2,17.3-78,61.8-60.1c7.1,2.8,14.7,20.4,15.2,31.7C1532.6,1885.4,1531.5,1928.6,1531.5,1974z"/>
	<path fill="#FFFFFF" d="M1236.3,9017.4c0-36.4,2.2-68.1-0.5-99.1c-4.2-48.5,9.7-67.7,45.6-60c8.5,1.8,17.3,1.7,30.8,2.8
		c0,51.1,0,101.6,0,147.6c6.9,6.5,8.7,9.6,10.8,10c64.7,11,64.7,11,64.7,98.1c0,21.4,0,42.7,0,68.5c23.8,1.6,44.4,2.9,70.2,4.6
		c0,49.4,1.1,97.1-1,144.5c-0.4,8.6-13.6,20.5-22.2,23.2c-12.9,3.9-27,1-47,1c0,38.8-1.9,73.3,0.5,107.2c3,42.9-7.1,63.2-41.3,56.4
		c-9.4-1.9-19.4,1.2-32.9,2.4c0,26.9,0,51.5,0,76c0,24.8,0,49.6,0,83.6c-19.1,0-35.9-1-52.5,0.3c-20.2,1.6-26-11.4-25.4-36.2
		c0.9-39.7,0.2-79.5,0.2-116.5c-4.9-4.5-6.8-7.7-8.8-8c-64.1-7.4-64.1-7.4-64.1-91.8c-0.1-63.1-0.1-63.1-67.7-79.8
		c0-51.5,0-103.8,0-162.3c19.6-1.3,40.1-2.6,67.7-4.5c0-34.8,1.6-69.1-0.4-103c-2.5-42.9,5.8-67.9,42.6-61
		C1213.9,9023.1,1222.7,9019.4,1236.3,9017.4z M1243.8,9194.7c0,51,0,99.9,0,151.1c22.5,0,42.7,0,63.8,0c0-52.4,0-101.2,0-151.1
		C1285.5,9194.7,1266,9194.7,1243.8,9194.7z"/>
	<path fill="#FFFFFF" d="M366.6,1010.6c-5.1-6.2-5.9-8-6.9-8.2c-65.2-16.4-65.2-16.4-65.5-107.8c-0.1-18.1,0-36.2,0-58.7
		c-13.9-1.4-24.6-2.8-35.4-3.4c-9.9-0.5-19.8-0.1-32.6-0.1c0-56.5,0-110.1,0-163.4c22.8-8.1,53.9-7,63.5-25.6
		c11.3-21.9,3.7-60.8,4.6-92.3c0.5-16.2,1.8-32.3,2.9-50.1c23.9-1.9,44.6-3.6,68.9-5.6c0-51.8,0-101.1,0-155c26.5,0,49.4,0,76.5,0
		c0,49,0,99.8,0,146.5c6.2,5.8,8,9,10.1,9.2c65.4,7.7,65.4,7.6,65.5,99.4c0,19.5,0,39.1,0,57.3c25.6,7,63.8,8.8,65.1,19.2
		c6.4,49.6,2.9,101.4,2.9,156.8c-10.4,1.1-21,2.7-31.7,3.4c-9.9,0.6-19.8,0.1-36.3,0.1c0,38-2,74,0.5,109.5
		c3.1,43.9-8.8,61.9-41.8,56.6c-9.4-1.5-19.2,2.5-32,4.4c0,51.5,0,100.9,0,151.7c-8.7,2.9-14.4,6.1-20.2,6.5
		c-58.1,4.2-58.1,4.1-58.1-71.9C366.6,1061.2,366.6,1033.3,366.6,1010.6z M438.4,824.8c0-51.4,0-100.2,0-153.5
		c-23.4,9.2-55.6-26-63.6,24.1c-6.5,40.7-1.3,84.7-1.3,129.3C398.3,824.8,417.5,824.8,438.4,824.8z"/>
	<path fill="#FFFFFF" d="M294.1,9518.9c0-39.2-1.5-72.3,0.4-105.1c2.3-39.2-5.9-60.7-38.8-55.3c-9.3,1.5-19.2-2.6-30.6-4.4
		c0-55.2,0-107.6,0-163.5c22-1.9,42.5-3.6,69-5.9c0-34.3,2.3-67.3-0.5-99.5c-4.5-51.1,10.5-70.9,48.1-63.7
		c5.9,1.1,12.2-1.8,24.9-3.9c0-32.2,2.5-65-0.6-96.9c-4.9-51.8,10.4-70.6,47.8-62.3c8.4,1.9,17,1.9,29.9,3.3c0,52.4,0,103.1,0,148.8
		c27.9,10.8,60.4,10.7,70.4,30.6c11.6,23.3,3.4,64.1,4.1,97.4c0.3,14.6,1.3,29.2,2.1,46.8c22.5,1.6,43.2,3.1,69.1,5
		c0,47.7,1.4,93.8-1.1,139.6c-0.6,10.3-13.7,24.2-22.9,27.7c-12.6,4.8-27,1.2-47.4,1.2c0,39.8-1.9,75.7,0.5,111.1
		c2.8,42.3-9.5,57.8-40.2,52.4c-9.6-1.7-19.6,1-33.6,2.1c0,52,0,102.7,0,156.7c-27.1,0-50,0-77.8,0c0-52.9,0-103.4,0-156.3
		C341.5,9522.6,320.8,9521,294.1,9518.9z M372.7,9194.7c0,31.8,0,58.1,0,84.4c0.1,77.8,6.5,83.9,64.9,62.3c0-49,0-97.9,0-146.6
		C416.3,9194.7,397.9,9194.7,372.7,9194.7z"/>
	<path fill="#FFFFFF" d="M224.4,1804.8c0,62.7,0,115.1,0,177.7c-24.1-3.1-66.5-1.3-67.8-10.1c-7.1-49.2-8.1-101.8-1.8-151.1
		C156.1,1811.3,197.8,1810.5,224.4,1804.8z"/>
	<path fill="#FFFFFF" d="M224.5,8033.7c0,66,0,118.4,0,181.2c-26.3-5.5-67.9-5.1-69.6-16c-7.5-47.5-7.8-99.4-0.4-146.9
		C156.3,8040.7,197.5,8040.2,224.5,8033.7z"/>
	<path fill="#FFFFFF" d="M1096.5,8038.8c0,53.7-0.5,98.3,0.1,143c0.5,35.2-18.6,30.6-33.8,28.6c-16-2.1-41.5,15.5-43.3-25.7
		c-1.8-39.7-1.7-79.8,0.6-119.4c0.5-9.5,12.3-23.4,20.2-25.3C1057,8036.1,1074.4,8038.8,1096.5,8038.8z"/>
	<path fill="#FFFFFF" d="M1531.5,8044.8c0,46.8-0.4,91.4,0.1,136c0.5,38.8-20.9,30.5-36.8,29.7c-16.4-0.8-40.7,12.6-40.8-29.7
		c-0.1-19.9-0.1-39.8-0.1-59.8C1453.8,8028.8,1454,8028.5,1531.5,8044.8z"/>
	<path fill="#FFFFFF" d="M659.6,8033.1c0,66.1,0,118.5,0,181.3c-26.2-4.9-68-4.1-69.7-14.6c-7.5-47.5-8.1-99.5-0.8-146.9
		C591,8041.1,632,8040.2,659.6,8033.1z"/>
	<path fill="#FFFFFF" d="M1094.7,1802.6c0,66.6,0,118.9,0,181.4c-26-4.4-68-3.1-69.6-13.2c-7.5-47.5-8.5-99.3-1.2-146.8
		C1025.7,1812,1066.3,1810.5,1094.7,1802.6z"/>
	<path fill="#FFFFFF" d="M660.5,1804.2c0,65.3,0,116.5,0,178.3c-25-3.1-67.5-1-68.8-9.6c-7.2-49.2-8.5-101.8-2.2-151
		C590.8,1811.6,632.5,1810.5,660.5,1804.2z"/>
</g>
</svg>
