<?xml version="1.0" encoding="utf-8"?>
<!-- Generator: Adobe Illustrator 18.1.1, SVG Export Plug-In . SVG Version: 6.00 Build 0)  -->
<svg version="1.1" id="Layer_1" xmlns="http://www.w3.org/2000/svg" xmlns:xlink="http://www.w3.org/1999/xlink" x="0px" y="0px"
	 viewBox="0 0 15000 10000" enable-background="new 0 0 15000 10000" xml:space="preserve">
<rect y="6666.7" fill="#078930" width="15000" height="3333.3"/>
<rect y="3333.3" fill="#DA121A" width="15000" height="3333.3"/>
<rect y="0" width="15000" height="3333.3"/>
<rect y="3080" fill="#FFFFFF" width="15000" height="506.6"/>
<rect y="6413.3" fill="#FFFFFF" width="15000" height="506.6"/>
<polygon fill="#0F47AF" points="0,0 6540,5000 0,10000 "/>
<path fill="#FCDD09" d="M1229,5255.6l2265.1-1019.3L2261,6392.4l-269.2-2470.3l1670.4,1839.8L1229,5255.6z"/>
</svg>
